<?xml version="1.0" encoding="UTF-8" standalone="no"?>
<svg
   xmlns:dc="http://purl.org/dc/elements/1.1/"
   xmlns:cc="http://creativecommons.org/ns#"
   xmlns:rdf="http://www.w3.org/1999/02/22-rdf-syntax-ns#"
   xmlns:svg="http://www.w3.org/2000/svg"
   xmlns="http://www.w3.org/2000/svg"
   xmlns:sodipodi="http://sodipodi.sourceforge.net/DTD/sodipodi-0.dtd"
   xmlns:inkscape="http://www.inkscape.org/namespaces/inkscape"
   inkscape:version="1.0 (4035a4f, 2020-05-01)"
   sodipodi:docname="crown-s.svg"
   id="svg8"
   version="1.1"
   viewBox="0 0 70.776039 47.625"
   height="47.625mm"
   width="70.776039mm">
  <defs
     id="defs2" />
  <sodipodi:namedview
     inkscape:window-maximized="1"
     inkscape:window-y="27"
     inkscape:window-x="0"
     inkscape:window-height="704"
     inkscape:window-width="1366"
     showgrid="false"
     inkscape:document-rotation="0"
     inkscape:current-layer="g961"
     inkscape:document-units="mm"
     inkscape:cy="89.999985"
     inkscape:cx="133.75"
     inkscape:zoom="0.35"
     inkscape:pageshadow="2"
     inkscape:pageopacity="0.0"
     borderopacity="1.0"
     bordercolor="#666666"
     pagecolor="#ffffff"
     id="base" />
  <metadata
     id="metadata5">
    <rdf:RDF>
      <cc:Work
         rdf:about="">
        <dc:format>image/svg+xml</dc:format>
        <dc:type
           rdf:resource="http://purl.org/dc/dcmitype/StillImage" />
        <dc:title></dc:title>
      </cc:Work>
    </rdf:RDF>
  </metadata>
  <g
     transform="translate(-70.445313,-124.35417)"
     id="layer1"
     inkscape:groupmode="layer"
     inkscape:label="Layer 1">
    <g
       transform="matrix(0.26458333,0,0,0.26458333,70.445313,112.77865)"
       id="g961">
      <path
         style="fill:#c0c0c0;fill-opacity:1"
         d="m 256.975,100.34 c 0.041,0.736 -0.013,1.485 -0.198,2.229 l -16.5,66 c -0.832,3.325 -3.812,5.663 -7.238,5.681 l -99,0.5 c -0.013,0 -0.025,0 -0.038,0 H 35 c -3.444,0 -6.445,-2.346 -7.277,-5.688 l -16.5,-66.25 c -0.19,-0.764 -0.245,-1.534 -0.197,-2.289 C 4.643,98.512 0,92.539 0,85.5 0,76.815 7.065,69.75 15.75,69.75 c 8.685,0 15.75,7.065 15.75,15.75 0,4.891 -2.241,9.267 -5.75,12.158 l 20.658,20.814 c 5.221,5.261 12.466,8.277 19.878,8.277 8.764,0 17.12,-4.162 22.382,-11.135 L 122.618,70.63 C 119.766,67.78 118,63.842 118,59.5 c 0,-8.685 7.065,-15.75 15.75,-15.75 8.685,0 15.75,7.065 15.75,15.75 0,4.212 -1.672,8.035 -4.375,10.864 0.009,0.012 0.02,0.022 0.029,0.035 l 33.704,45.108 c 5.26,7.04 13.646,11.243 22.435,11.243 7.48,0 14.514,-2.913 19.803,-8.203 L 241.884,97.759 C 238.301,94.869 236,90.451 236,85.5 c 0,-8.685 7.065,-15.75 15.75,-15.75 8.685,0 15.75,7.065 15.75,15.75 0,6.851 -4.405,12.678 -10.525,14.84 z m -18.308,97.91 c 0,-4.142 -3.358,-7.5 -7.5,-7.5 h -194 c -4.142,0 -7.5,3.358 -7.5,7.5 v 18 c 0,4.142 3.358,7.5 7.5,7.5 h 194 c 4.142,0 7.5,-3.358 7.5,-7.5 z"
         id="path906" />
      <g
         id="g908">
</g>
      <g
         id="g910">
</g>
      <g
         id="g912">
</g>
      <g
         id="g914">
</g>
      <g
         id="g916">
</g>
      <g
         id="g918">
</g>
      <g
         id="g920">
</g>
      <g
         id="g922">
</g>
      <g
         id="g924">
</g>
      <g
         id="g926">
</g>
      <g
         id="g928">
</g>
      <g
         id="g930">
</g>
      <g
         id="g932">
</g>
      <g
         id="g934">
</g>
      <g
         id="g936">
</g>
    </g>
  </g>
</svg>
