<?xml version="1.0" encoding="UTF-8" standalone="no"?>
<svg
   xmlns:dc="http://purl.org/dc/elements/1.1/"
   xmlns:cc="http://creativecommons.org/ns#"
   xmlns:rdf="http://www.w3.org/1999/02/22-rdf-syntax-ns#"
   xmlns:svg="http://www.w3.org/2000/svg"
   xmlns="http://www.w3.org/2000/svg"
   xmlns:xlink="http://www.w3.org/1999/xlink"
   xmlns:sodipodi="http://sodipodi.sourceforge.net/DTD/sodipodi-0.dtd"
   xmlns:inkscape="http://www.inkscape.org/namespaces/inkscape"
   sodipodi:docname="cup.svg"
   inkscape:version="1.0 (4035a4f, 2020-05-01)"
   id="svg4770"
   version="1.1"
   viewBox="0 0 15.667064 11.301425"
   height="11.301424mm"
   width="15.667064mm">
  <defs
     id="defs4764">
    <linearGradient
       inkscape:collect="always"
       id="linearGradient2216">
      <stop
         style="stop-color:#b39e30;stop-opacity:1"
         offset="0"
         id="stop2212" />
      <stop
         style="stop-color:#e1e272;stop-opacity:0.98932701"
         offset="1"
         id="stop2214" />
    </linearGradient>
    <linearGradient
       id="linearGradient5405"
       inkscape:collect="always">
      <stop
         id="stop5401"
         offset="0"
         style="stop-color:#a5a509;stop-opacity:1" />
      <stop
         id="stop5403"
         offset="1"
         style="stop-color:#e1e272;stop-opacity:0.77254903" />
    </linearGradient>
    <linearGradient
       gradientUnits="userSpaceOnUse"
       y2="101.76971"
       x2="82.966591"
       y1="172.04465"
       x1="148.59053"
       id="linearGradient5407"
       xlink:href="#linearGradient2216"
       inkscape:collect="always"
       gradientTransform="matrix(0.72722721,0,0,0.74408288,28.643828,38.312312)" />
    <linearGradient
       gradientTransform="matrix(0.84144375,0,0,-1.1598452,-4.7325201,281.27417)"
       gradientUnits="userSpaceOnUse"
       y2="114.69302"
       x2="48.860271"
       y1="121.6937"
       x1="17.696762"
       id="linearGradient5417"
       xlink:href="#linearGradient5405"
       inkscape:collect="always" />
    <linearGradient
       gradientUnits="userSpaceOnUse"
       y2="178.30429"
       x2="68.775238"
       y1="199.19307"
       x1="71.396309"
       id="linearGradient2202"
       xlink:href="#linearGradient5405"
       inkscape:collect="always"
       gradientTransform="matrix(1.3701541,0,0,0.88612508,-37.523557,16.605453)" />
    <linearGradient
       gradientUnits="userSpaceOnUse"
       y2="199.19307"
       x2="71.396309"
       y1="196.35123"
       x1="116.84481"
       id="linearGradient2210"
       xlink:href="#linearGradient2216"
       inkscape:collect="always"
       gradientTransform="matrix(1.3701541,0,0,0.88612508,-37.523557,16.605453)" />
    <linearGradient
       gradientTransform="matrix(1.3701541,0,0,0.88612508,-31.093659,12.294853)"
       inkscape:collect="always"
       xlink:href="#linearGradient892"
       id="linearGradient2210-3"
       x1="116.84481"
       y1="196.35123"
       x2="77.559151"
       y2="195.39931"
       gradientUnits="userSpaceOnUse" />
    <linearGradient
       inkscape:collect="always"
       id="linearGradient892">
      <stop
         style="stop-color:#aa4420;stop-opacity:1"
         offset="0"
         id="stop888" />
      <stop
         style="stop-color:#ffac69;stop-opacity:1"
         offset="1"
         id="stop890" />
    </linearGradient>
  </defs>
  <sodipodi:namedview
     inkscape:guide-bbox="true"
     showguides="true"
     inkscape:window-maximized="1"
     inkscape:window-y="0"
     inkscape:window-x="0"
     inkscape:window-height="731"
     inkscape:window-width="1366"
     showgrid="false"
     inkscape:document-rotation="0"
     inkscape:current-layer="layer1"
     inkscape:document-units="mm"
     inkscape:cy="85.605667"
     inkscape:cx="126.14361"
     inkscape:zoom="1.4"
     inkscape:pageshadow="2"
     inkscape:pageopacity="0.0"
     borderopacity="1.0"
     bordercolor="#666666"
     pagecolor="#ffffff"
     id="base">
    <sodipodi:guide
       id="guide920"
       orientation="0,-1"
       position="237.71955,473.30682" />
  </sodipodi:namedview>
  <metadata
     id="metadata4767">
    <rdf:RDF>
      <cc:Work
         rdf:about="">
        <dc:format>image/svg+xml</dc:format>
        <dc:type
           rdf:resource="http://purl.org/dc/dcmitype/StillImage" />
        <dc:title />
      </cc:Work>
    </rdf:RDF>
  </metadata>
  <g
     style="display:inline"
     transform="translate(1.9179301,-85.562875)"
     id="layer1"
     inkscape:groupmode="layer"
     inkscape:label="Layer 1">
    <g
       id="g947"
       style="opacity:1" />
    <g
       transform="matrix(0.07341705,0,0,0.07372388,-1.7770658,79.254809)"
       id="g956">
      <path
         id="rect5351"
         style="fill:url(#linearGradient2210);fill-opacity:1;stroke:url(#linearGradient2202);stroke-width:0;stroke-miterlimit:4;stroke-dasharray:none;stroke-opacity:1"
         d="m 94.400972,162.44642 h 18.633918 c 9.5644,0 23.81288,1.48269 17.9203,4.05041 -9.81206,4.27564 -24.55314,5.66781 -20.04197,25.87716 2.46788,12.07736 21.46498,17.94818 20.44027,22.51719 -1.29435,5.77134 -13.60835,3.41588 -18.3186,3.41588 H 94.400972 c -4.249806,0 -24.44318,3.38549 -16.297243,-6.62305 2.959067,-3.63567 16.45451,-10.04522 20.41835,-19.09731 5.120391,-17.82567 -5.213773,-20.49817 -18.160116,-25.73914 -7.72135,-3.12577 5.489057,-4.40114 14.039009,-4.40114 z"
         sodipodi:nodetypes="ssscsssscss" />
      <path
         sodipodi:nodetypes="ssssssssss"
         d="m 34.748214,140.22862 c 0.256401,0.0125 2.073931,0.13461 2.322859,0.10744 2.552707,-0.27911 10.42332,-0.52476 16.057103,-1.36481 2.3865,-0.35584 1.949873,-0.008 2.279003,2.06362 1.05645,6.64949 5.105745,9.98169 6.929492,12.16623 0.979005,1.17268 1.501529,2.18331 1.964711,2.47473 29.571121,18.60551 5.31045,15.73255 -15.692118,-8.25053 -0.631854,-0.72152 -10.320002,2.07573 -16.131078,-3.24463 -5.138881,-4.70493 -0.280837,-4.07496 2.270028,-3.952 z"
         style="fill:#e1c528;fill-opacity:1;stroke:#281818;stroke-width:0.482063;stroke-miterlimit:4;stroke-dasharray:none;stroke-opacity:1"
         id="path2306" />
      <path
         id="path2294"
         style="fill:#e1c528;fill-opacity:1;stroke:#281818;stroke-width:0.723094;stroke-miterlimit:4;stroke-dasharray:none;stroke-opacity:1"
         d="m -1.5441324,88.510283 c 9.5509768,2.206643 29.5836734,6.794349 44.0491494,3.911681 6.416879,-1.278749 13.152411,-3.521393 15.775132,-4.005349 2.886269,-0.675524 43.960941,1.367034 4.703175,6.558231 -6.142898,0.812298 2.971054,2.10338 -5.19325,2.121882 -1.372304,0.0031 -5.309656,1.710335 -5.915192,2.284405 -0.58755,0.557017 -4.076752,4.018467 -3.782406,1.070027 -10.980742,-1.688927 -23.74877,0.57809 -37.597226,0.74396 C 5.3767434,99.013317 -1.8841411,91.820402 -1.5441324,88.510345 Z"
         sodipodi:nodetypes="cscssscccc" />
      <path
         sodipodi:nodetypes="cssccsccccc"
         d="m 61.152638,91.976322 c 7.176793,-3.455096 19.794118,-3.229642 19.262709,-0.697144 -3.23188,15.401922 -3.768838,17.796332 -8.154953,14.956382 -0.466817,-0.30227 1.245471,-4.482 1.141294,-5.10126 -0.01804,-1.04508 0.607567,-3.989418 -9.689235,-3.035474 -4.984955,-0.07195 -11.376489,18.753234 -11.037939,30.883134 0.247269,8.85938 3.711945,17.83424 10.968951,26.0163 4.528189,5.98491 6.364328,5.19864 8.48578,4.48306 37.768385,21.59426 21.935035,14.1655 30.521465,23.9226 7.89309,5.90556 -24.500612,-14.80241 -29.556104,-16.88791 -13.332538,-4.2398 -41.511373,-35.75543 -11.941968,-74.539688 z"
         style="fill:#e1c528;fill-opacity:1;stroke:#000000;stroke-width:0.095;stroke-miterlimit:4;stroke-dasharray:none;stroke-opacity:1"
         id="rect850" />
      <path
         sodipodi:nodetypes="ssccssss"
         d="m 20.29439,99.901119 c 13.065177,0.464711 20.335885,-0.995271 29.274457,-1.950857 3.632951,-0.388385 4.127903,-2.754001 3.25365,2.222108 -0.707084,5.77036 -0.516881,5.18615 -1.086965,5.86256 -0.607338,2.51021 -1.092934,0.69319 -2.955736,0.79875 l -20.246915,1.14744 c -2.733706,0.15492 -10.406242,1.2576 -13.903676,-4.33972 -4.182322,-6.693395 2.75482,-3.843801 5.665185,-3.740281 z"
         style="fill:#e1c528;fill-opacity:1;stroke:#281818;stroke-width:0.482063;stroke-miterlimit:4;stroke-dasharray:none;stroke-opacity:1"
         id="rect856" />
      <path
         id="path879"
         style="fill:#e1c528;fill-opacity:1;stroke:#281818;stroke-width:0.482063;stroke-miterlimit:4;stroke-dasharray:none;stroke-opacity:1"
         d="m 22.173199,108.00427 c 9.613805,0.008 23.179274,-0.42719 28.111874,-1.67321 3.097136,-0.78235 2.372929,-0.35138 1.553135,2.51032 -0.381081,1.33026 -0.233349,2.56387 -0.236597,3.44556 -0.01618,4.39133 -0.450555,2.87065 -2.239143,2.96798 l -18.371418,0.99961 c -2.533657,0.13787 -11.196303,1.72008 -14.437327,-3.87722 -3.875705,-6.69342 3.116107,-4.37484 5.619476,-4.37304 z"
         sodipodi:nodetypes="ssssssss" />
      <path
         sodipodi:nodetypes="ssssssssss"
         d="m 25.784204,116.63219 c 0.384857,0.0231 4.980226,-0.29054 7.786172,-0.514 7.596719,-0.60497 12.037857,-1.04609 17.575827,-1.22988 0.942448,-0.0313 0.744069,1.60298 0.570805,3.59212 -0.106152,1.21863 -0.04159,2.15973 -0.04106,2.54603 0.0011,0.77515 0.810231,3.39669 -0.907468,2.8976 -2.361598,-0.68618 -10.621154,0.28858 -17.579478,0.46746 -5.179917,0.13315 -10.255434,1.94535 -13.317475,-3.65195 -3.661676,-6.69341 3.898318,-4.22803 4.096997,-4.21612 z"
         style="fill:#e1c528;fill-opacity:1;stroke:#281818;stroke-width:0.482063;stroke-miterlimit:4;stroke-dasharray:none;stroke-opacity:1"
         id="path881" />
      <path
         id="path883"
         style="fill:#e1c528;fill-opacity:1;stroke:#281818;stroke-width:0.482063;stroke-miterlimit:4;stroke-dasharray:none;stroke-opacity:1"
         d="m 28.224373,124.5522 c 8.423918,-0.47108 14.115342,-0.44486 21.412756,-0.83076 2.222939,-0.1176 2.562262,0.30757 2.747301,2.48218 0.128059,1.50496 0.46649,2.70548 0.529232,3.06597 0.387114,2.22424 0.8354,2.67046 -0.930859,2.70538 -5.382719,0.10644 -10.37238,0.61267 -16.402988,0.89086 -2.211101,0.10206 -7.979093,1.55434 -11.374794,-3.65973 -3.347298,-5.13974 1.24257,-4.49861 4.019352,-4.6539 z"
         sodipodi:nodetypes="ssssssss" />
      <path
         sodipodi:nodetypes="sssssssss"
         d="m 32.595936,132.63256 c 12.795955,0 14.980721,-0.4907 19.732007,-1.23433 0.896456,-0.1403 0.961832,0.58553 1.010371,0.95695 0.07405,0.56662 0.112872,1.57596 0.42665,2.6626 2.559874,8.86489 1.724765,4.9351 0.01585,4.98681 -4.961036,0.15008 -14.132883,0.44672 -14.806625,0.46744 -1.797046,0.0553 -6.849897,1.17969 -10.37653,-3.65973 -4.250978,-5.83341 1.860413,-4.17974 3.998285,-4.17974 z"
         style="fill:#e1c528;fill-opacity:1;stroke:#281818;stroke-width:0.482063;stroke-miterlimit:4;stroke-dasharray:none;stroke-opacity:1"
         id="path885" />
      <path
         id="path888"
         style="fill:#e1c528;fill-opacity:1;stroke:#281818;stroke-width:0.482063;stroke-miterlimit:4;stroke-dasharray:none;stroke-opacity:1"
         d="m 173.89913,139.28606 c -0.2564,0.0125 -2.07393,0.13461 -2.32286,0.10744 -2.55271,-0.27911 -10.42332,-0.52476 -16.05711,-1.36481 -2.3865,-0.35584 -1.94987,-0.008 -2.279,2.06362 -1.05645,6.64949 -4.32081,10.14705 -6.29184,12.38899 -1.00865,1.14729 -2.40513,2.09823 -2.86831,2.38965 -29.57112,18.60551 -5.0445,15.59487 15.95807,-8.38821 0.63185,-0.72152 10.32,2.07573 16.13107,-3.24463 5.13889,-4.70493 0.28084,-4.07496 -2.27002,-3.952 z"
         sodipodi:nodetypes="ssssssssss" />
      <path
         sodipodi:nodetypes="cscssscccc"
         d="m 210.19147,89.155208 c -9.55097,2.20665 -29.58367,6.79435 -44.04915,3.91168 -6.41688,-1.27875 -13.15241,-3.52139 -15.77513,-4.00535 -2.88627,-0.67552 -43.96094,1.36704 -4.70317,6.55824 6.14289,0.81229 -2.97106,2.10338 5.19325,2.12188 1.3723,0.003 5.30965,1.71033 5.91519,2.284402 0.58755,0.55702 4.07675,4.01849 3.7824,1.07003 10.98075,-1.688932 23.74877,0.5781 37.59723,0.74397 5.11851,-2.181812 12.37939,-9.374732 12.03938,-12.684792 z"
         style="fill:#e1c528;fill-opacity:1;stroke:#281818;stroke-width:0.723094;stroke-miterlimit:4;stroke-dasharray:none;stroke-opacity:1"
         id="path890" />
      <path
         id="path894"
         style="fill:#e1c528;fill-opacity:1;stroke:#281818;stroke-width:0.482063;stroke-miterlimit:4;stroke-dasharray:none;stroke-opacity:1"
         d="m 188.35295,100.54604 c -13.06518,0.46472 -20.33588,-0.995262 -29.27446,-1.950852 -3.63295,-0.38838 -4.1279,-2.754 -3.25365,2.222112 0.70709,5.77038 0.51688,5.18617 1.08697,5.86258 0.60734,2.51021 1.09293,0.69319 2.95573,0.79875 l 20.24692,1.14744 c 2.73371,0.15492 10.40624,1.2576 13.90368,-4.33972 4.18232,-6.693422 -2.75482,-3.84383 -5.66519,-3.74031 z"
         sodipodi:nodetypes="ssccssss" />
      <path
         sodipodi:nodetypes="ssssssss"
         d="m 186.47414,108.64922 c -9.6138,0.008 -23.17927,-0.42719 -28.11187,-1.67321 -3.09714,-0.78235 -2.37293,-0.35138 -1.55314,2.51032 0.38108,1.33026 0.23335,2.56387 0.2366,3.44556 0.0162,4.39133 0.45055,2.87065 2.23914,2.96798 l 18.37142,0.99961 c 2.53366,0.13787 11.1963,1.72008 14.43733,-3.87722 3.8757,-6.69342 -3.11611,-4.37484 -5.61948,-4.37304 z"
         style="fill:#e1c528;fill-opacity:1;stroke:#281818;stroke-width:0.482063;stroke-miterlimit:4;stroke-dasharray:none;stroke-opacity:1"
         id="path896" />
      <path
         id="path898"
         style="fill:#e1c528;fill-opacity:1;stroke:#281818;stroke-width:0.482063;stroke-miterlimit:4;stroke-dasharray:none;stroke-opacity:1"
         d="m 182.86314,117.27714 c -0.38486,0.0231 -4.98023,-0.29054 -7.78618,-0.514 -7.59671,-0.60497 -12.03785,-1.04609 -17.57582,-1.22988 -0.94245,-0.0313 -0.74407,1.60298 -0.57081,3.59212 0.10615,1.21863 0.0416,2.15973 0.0411,2.54603 -0.001,0.77515 -0.81023,3.39669 0.90747,2.8976 2.3616,-0.68618 10.62115,0.28858 17.57948,0.46746 5.17992,0.13315 10.25543,1.94535 13.31747,-3.65195 3.66168,-6.69341 -3.89831,-4.22803 -4.09699,-4.21612 z"
         sodipodi:nodetypes="ssssssssss" />
      <path
         id="path892"
         style="fill:#e1c528;fill-opacity:1;stroke:#000000;stroke-width:0.1;stroke-miterlimit:4;stroke-dasharray:none;stroke-opacity:1"
         d="m 148.04386,92.623336 c -7.17679,-3.45509 -19.79412,-3.22964 -19.26271,-0.69714 3.23188,15.401944 3.76884,17.796354 8.15496,14.956404 0.46681,-0.30227 -1.24547,-4.48201 -1.1413,-5.10127 0.018,-1.04509 -0.60756,-3.989434 9.68924,-3.035484 4.98495,-0.0719 11.37649,18.753254 11.03794,30.883154 -0.24727,8.85938 -3.71195,17.83424 -10.96895,26.0163 -4.52819,5.98491 -6.36433,5.19864 -8.48578,4.48306 -40.145066,21.99225 -20.95044,14.77124 -31.75325,23.37944 -8.36772,5.3377 25.64651,-14.362 30.78788,-16.34475 13.33254,-4.2398 41.51138,-35.75543 11.94197,-74.539714 z"
         sodipodi:nodetypes="cssccsccccc" />
      <rect
         style="opacity:0.996;fill:#8b0b3b;fill-opacity:1;stroke:#000000;stroke-width:0;stroke-miterlimit:4;stroke-dasharray:none;stroke-opacity:1"
         id="rect5341"
         width="84.994865"
         height="23.649239"
         x="61.958221"
         y="214.82191"
         ry="9.6660891" />
      <rect
         style="fill:#160b0a;fill-opacity:0.891961;stroke:#000000;stroke-width:0.732643;stroke-miterlimit:4;stroke-dasharray:none;stroke-opacity:1"
         id="rect5345"
         width="92.572357"
         height="8.4300823"
         x="58.72139"
         y="230.04106"
         ry="0" />
      <path
         sodipodi:nodetypes="ssssssss"
         d="m 180.42297,125.19715 c -8.42392,-0.47108 -14.11534,-0.44486 -21.41276,-0.83076 -2.22294,-0.1176 -2.56226,0.30757 -2.7473,2.48218 -0.12806,1.50496 -0.46649,2.70548 -0.52923,3.06597 -0.38712,2.22424 -0.8354,2.67046 0.93086,2.70538 5.38272,0.10644 10.37238,0.61267 16.40299,0.89086 2.2111,0.10206 7.97909,1.55434 11.37479,-3.65973 3.3473,-5.13974 -1.24257,-4.49861 -4.01935,-4.6539 z"
         style="fill:#e1c528;fill-opacity:1;stroke:#281818;stroke-width:0.482063;stroke-miterlimit:4;stroke-dasharray:none;stroke-opacity:1"
         id="path900" />
      <path
         id="rect5335"
         style="fill:url(#linearGradient5407);fill-opacity:1;stroke:#d3be74;stroke-width:0;stroke-opacity:0"
         d="m 77.290182,87.690687 c 23.662048,2.569287 39.897708,1.020049 53.186088,0 6.37253,-0.489171 11.54687,5.269269 11.54687,11.814514 v 52.124909 c 0,5.21691 -3.14449,8.99793 -14.68835,15.68589 -23.83881,12.85588 -26.4373,11.60457 -51.02369,-3.8191 -4.963501,-3.11374 -9.013376,-6.48802 -10.711139,-13.32794 l 0.143343,-50.663759 c 0.01852,-6.545213 5.189093,-12.504858 11.546878,-11.814514 z"
         sodipodi:nodetypes="sssscscss" />
      <ellipse
         style="fill:#f4e553;fill-opacity:0.426473;stroke:#8b0b3b;stroke-width:2.05893;stroke-miterlimit:4;stroke-dasharray:none;stroke-opacity:1"
         id="path922"
         cx="103.81155"
         cy="130.80797"
         rx="31.698114"
         ry="31.261213" />
      <path
         sodipodi:type="star"
         style="fill:#fff9be;fill-opacity:0.760442;stroke:#a7044b;stroke-width:0.941478;stroke-miterlimit:4;stroke-dasharray:none;stroke-opacity:1"
         id="path924"
         sodipodi:sides="5"
         sodipodi:cx="102.89081"
         sodipodi:cy="128.67094"
         sodipodi:r1="27.84873"
         sodipodi:r2="14.391304"
         sodipodi:arg1="1.0471976"
         sodipodi:arg2="1.6755161"
         inkscape:flatsided="false"
         inkscape:rounded="0"
         inkscape:randomized="0"
         d="m 116.81517,152.78865 -15.42866,-9.80524 -17.130141,6.38317 4.55762,-17.70352 -11.364261,-14.31922 18.245428,-1.13613 10.106634,-15.23294 6.71868,17.00135 17.61051,4.90475 -14.09306,11.64355 z"
         inkscape:transform-center-x="0.0094714136"
         inkscape:transform-center-y="-2.7562678"
         transform="matrix(1.0772049,-0.11048548,0.1143254,1.0355997,-21.194306,9.1354226)" />
      <path
         id="path902"
         style="fill:#e1c528;fill-opacity:1;stroke:#281818;stroke-width:0.482063;stroke-miterlimit:4;stroke-dasharray:none;stroke-opacity:1"
         d="m 176.0514,133.27751 c -12.79595,0 -14.98072,-0.4907 -19.732,-1.23433 -0.89646,-0.1403 -0.96183,0.58553 -1.01037,0.95695 -0.074,0.56662 -0.11288,1.57596 -0.42665,2.6626 -2.55988,8.86489 -1.72477,4.9351 -0.0159,4.98681 4.96103,0.15008 14.13288,0.44672 14.80662,0.46744 1.79705,0.0553 6.8499,1.17969 10.37653,-3.65973 4.25098,-5.83341 -1.86041,-4.17974 -3.99828,-4.17974 z"
         sodipodi:nodetypes="sssssssss" />
      <path
         sodipodi:nodetypes="cssssc"
         d="m 105.00312,85.816861 c 27.74547,0.290945 29.61288,2.496607 25.84994,2.489957 -6.21248,-0.01098 -3.72029,-0.261456 -22.91907,0.930031 -10.238599,0.635413 -31.004701,-1.781833 -31.757389,-1.364232 -0.301706,0.16739 -0.580675,-1.037953 0.404778,-1.206367 6.442227,-1.100976 21.58692,-0.771865 28.421741,-0.849389"
         style="fill:#bdbdb8;fill-opacity:0.600255;stroke:#532c2c;stroke-width:0.508;stroke-miterlimit:4;stroke-dasharray:none;stroke-opacity:1"
         id="path968" />
      <path
         sodipodi:nodetypes="ssccssss"
         d="m 188.35295,100.54604 c -13.06518,0.46472 -20.33303,-1.022372 -29.27446,-1.950852 -3.70441,-0.38467 -10.91985,-3.1717 -6.31733,2.153202 4.15065,5.93149 3.22889,5.82315 4.15065,5.93149 0.32646,0.2541 1.22558,0.7007 2.95573,0.79875 l 20.24692,1.14744 c 2.73371,0.15492 13.12487,0.37645 16.62231,-5.22087 4.18232,-6.693422 -5.47345,-2.96268 -8.38382,-2.85916 z"
         style="fill:#e1c528;fill-opacity:1;stroke:#281818;stroke-width:0.482063;stroke-miterlimit:4;stroke-dasharray:none;stroke-opacity:1"
         id="path904" />
      <path
         id="path2296"
         style="fill:#e1c528;fill-opacity:1;stroke:#281818;stroke-width:0.482063;stroke-miterlimit:4;stroke-dasharray:none;stroke-opacity:1"
         d="m 20.29439,99.901119 c 13.065177,0.464711 20.333029,-1.022374 29.274457,-1.950857 3.704417,-0.384669 10.919855,-3.171703 6.317331,2.153198 -4.150646,5.93147 -3.228885,5.82313 -4.150646,5.93147 -0.326463,0.2541 -1.225585,0.7007 -2.955736,0.79875 l -20.246915,1.14744 c -2.733706,0.15492 -13.124874,0.37645 -16.622307,-5.22087 -4.1823235,-6.693399 5.473451,-2.962651 8.383816,-2.859131 z"
         sodipodi:nodetypes="ssccssss" />
      <path
         sodipodi:nodetypes="ssssssss"
         d="m 22.173199,108.00427 c 9.613805,0.008 23.120653,-0.68791 28.111874,-1.67321 2.370095,-0.46786 2.920653,-1.60777 1.436955,2.57455 -0.462648,1.30414 -0.117169,2.49964 -0.120417,3.38133 -0.01618,4.39133 -0.450555,2.87065 -2.239143,2.96798 l -18.371418,0.99961 c -2.533657,0.13787 -11.196303,1.72008 -14.437327,-3.87722 -3.875705,-6.69342 3.116107,-4.37484 5.619476,-4.37304 z"
         style="fill:#e1c528;fill-opacity:1;stroke:#281818;stroke-width:0.482063;stroke-miterlimit:4;stroke-dasharray:none;stroke-opacity:1"
         id="path2298" />
      <path
         id="path2300"
         style="fill:#e1c528;fill-opacity:1;stroke:#281818;stroke-width:0.482063;stroke-miterlimit:4;stroke-dasharray:none;stroke-opacity:1"
         d="m 25.784204,116.63219 c 0.384857,0.0231 4.980226,-0.29054 7.786172,-0.514 7.596719,-0.60497 12.037857,-1.04609 17.575827,-1.22988 0.942448,-0.0313 0.744069,1.60298 0.570805,3.59212 -0.106152,1.21863 -0.04159,2.15973 -0.04106,2.54603 0.0011,0.77515 0.810231,3.39669 -0.907468,2.8976 -2.361598,-0.68618 -10.621154,0.28858 -17.579478,0.46746 -5.179917,0.13315 -10.255434,1.94535 -13.317475,-3.65195 -3.661676,-6.69341 3.898318,-4.22803 4.096997,-4.21612 z"
         sodipodi:nodetypes="ssssssssss" />
      <path
         sodipodi:nodetypes="ssssssss"
         d="m 28.224373,124.5522 c 8.423918,-0.47108 14.115342,-0.44486 21.412756,-0.83076 2.222939,-0.1176 2.562262,0.30757 2.747301,2.48218 0.128059,1.50496 0.46649,2.70548 0.529232,3.06597 0.387114,2.22424 0.8354,2.67046 -0.930859,2.70538 -5.382719,0.10644 -10.37238,0.61267 -16.402988,0.89086 -2.211101,0.10206 -7.979093,1.55434 -11.374794,-3.65973 -3.347298,-5.13974 1.24257,-4.49861 4.019352,-4.6539 z"
         style="fill:#e1c528;fill-opacity:1;stroke:#281818;stroke-width:0.482063;stroke-miterlimit:4;stroke-dasharray:none;stroke-opacity:1"
         id="path2302" />
      <path
         id="path2304"
         style="fill:#e1c528;fill-opacity:1;stroke:#281818;stroke-width:0.482063;stroke-miterlimit:4;stroke-dasharray:none;stroke-opacity:1"
         d="m 32.595936,132.63256 c 12.795955,0 14.980721,-0.4907 19.732007,-1.23433 0.896456,-0.1403 0.961832,0.58553 1.010371,0.95695 0.07405,0.56662 0.112872,1.57596 0.42665,2.6626 2.559874,8.86489 1.724765,4.9351 0.01585,4.98681 -4.961036,0.15008 -14.132883,0.44672 -14.806625,0.46744 -1.797046,0.0553 -6.849897,1.17969 -10.37653,-3.65973 -4.250978,-5.83341 1.860413,-4.17974 3.998285,-4.17974 z"
         sodipodi:nodetypes="sssssssss" />
      <path
         id="path906"
         style="fill:#e1c528;fill-opacity:1;stroke:#281818;stroke-width:0.482063;stroke-miterlimit:4;stroke-dasharray:none;stroke-opacity:1"
         d="m 186.47414,108.64922 c -9.6138,0.008 -23.12065,-0.68791 -28.11187,-1.67321 -2.3701,-0.46786 -2.92066,-1.60777 -1.43696,2.57455 0.46265,1.30414 0.11717,2.49964 0.12042,3.38133 0.0162,4.39133 0.45055,2.87065 2.23914,2.96798 l 18.37142,0.99961 c 2.53366,0.13787 11.1963,1.72008 14.43733,-3.87722 3.8757,-6.69342 -3.11611,-4.37484 -5.61948,-4.37304 z"
         sodipodi:nodetypes="ssssssss" />
      <path
         sodipodi:nodetypes="ssssssssss"
         d="m 182.86314,117.27714 c -0.38486,0.0231 -4.98023,-0.29054 -7.78618,-0.514 -7.59671,-0.60497 -12.03785,-1.04609 -17.57582,-1.22988 -0.94245,-0.0313 -0.74407,1.60298 -0.57081,3.59212 0.10615,1.21863 0.0416,2.15973 0.0411,2.54603 -0.001,0.77515 -0.81023,3.39669 0.90747,2.8976 2.3616,-0.68618 10.62115,0.28858 17.57948,0.46746 5.17992,0.13315 10.25543,1.94535 13.31747,-3.65195 3.66168,-6.69341 -3.89831,-4.22803 -4.09699,-4.21612 z"
         style="fill:#e1c528;fill-opacity:1;stroke:#281818;stroke-width:0.482063;stroke-miterlimit:4;stroke-dasharray:none;stroke-opacity:1"
         id="path908" />
      <path
         id="path910"
         style="fill:#e1c528;fill-opacity:1;stroke:#281818;stroke-width:0.482063;stroke-miterlimit:4;stroke-dasharray:none;stroke-opacity:1"
         d="m 180.42297,125.19715 c -8.42392,-0.47108 -14.11534,-0.44486 -21.41276,-0.83076 -2.22294,-0.1176 -2.56226,0.30757 -2.7473,2.48218 -0.12806,1.50496 -0.46649,2.70548 -0.52923,3.06597 -0.38712,2.22424 -0.8354,2.67046 0.93086,2.70538 5.38272,0.10644 10.37238,0.61267 16.40299,0.89086 2.2111,0.10206 7.97909,1.55434 11.37479,-3.65973 3.3473,-5.13974 -1.24257,-4.49861 -4.01935,-4.6539 z"
         sodipodi:nodetypes="ssssssss" />
      <path
         sodipodi:nodetypes="sssssssss"
         d="m 176.0514,133.27751 c -12.79595,0 -14.98072,-0.4907 -19.732,-1.23433 -0.89646,-0.1403 -0.96183,0.58553 -1.01037,0.95695 -0.074,0.56662 -0.11288,1.57596 -0.42665,2.6626 -2.55988,8.86489 -1.72477,4.9351 -0.0159,4.98681 4.96103,0.15008 14.13288,0.44672 14.80662,0.46744 1.79705,0.0553 6.8499,1.17969 10.37653,-3.65973 4.25098,-5.83341 -1.86041,-4.17974 -3.99828,-4.17974 z"
         style="fill:#e1c528;fill-opacity:1;stroke:#281818;stroke-width:0.482063;stroke-miterlimit:4;stroke-dasharray:none;stroke-opacity:1"
         id="path912" />
    </g>
    <g
       transform="translate(431.40552,5.3547672)"
       id="g947-3" />
  </g>
</svg>
