<?xml version="1.0" encoding="UTF-8" standalone="no"?>
<svg
   xmlns:dc="http://purl.org/dc/elements/1.1/"
   xmlns:cc="http://creativecommons.org/ns#"
   xmlns:rdf="http://www.w3.org/1999/02/22-rdf-syntax-ns#"
   xmlns:svg="http://www.w3.org/2000/svg"
   xmlns="http://www.w3.org/2000/svg"
   xmlns:sodipodi="http://sodipodi.sourceforge.net/DTD/sodipodi-0.dtd"
   xmlns:inkscape="http://www.inkscape.org/namespaces/inkscape"
   inkscape:version="1.0 (4035a4f, 2020-05-01)"
   sodipodi:docname="mapathon.svg"
   viewBox="0 0 10.671952 6.4381914"
   height="6.4381914"
   width="10.671952"
   id="svg943"
   version="1.1">
  <metadata
     id="metadata949">
    <rdf:RDF>
      <cc:Work
         rdf:about="">
        <dc:format>image/svg+xml</dc:format>
        <dc:type
           rdf:resource="http://purl.org/dc/dcmitype/StillImage" />
        <dc:title />
      </cc:Work>
    </rdf:RDF>
  </metadata>
  <defs
     id="defs947">
    <inkscape:path-effect
       only_selected="false"
       apply_with_weight="true"
       apply_no_weight="true"
       helper_size="0"
       steps="2"
       weight="33.333333"
       lpeversion="1"
       is_visible="true"
       id="path-effect1779"
       effect="bspline" />
    <inkscape:path-effect
       only_selected="false"
       apply_with_weight="true"
       apply_no_weight="true"
       helper_size="0"
       steps="2"
       weight="33.333333"
       lpeversion="1"
       is_visible="true"
       id="path-effect1769"
       effect="bspline" />
    <inkscape:path-effect
       only_selected="false"
       apply_with_weight="true"
       apply_no_weight="true"
       helper_size="0"
       steps="2"
       weight="33.333333"
       lpeversion="1"
       is_visible="true"
       id="path-effect1765"
       effect="bspline" />
    <inkscape:path-effect
       only_selected="false"
       apply_with_weight="true"
       apply_no_weight="true"
       helper_size="0"
       steps="2"
       weight="33.333333"
       lpeversion="1"
       is_visible="true"
       id="path-effect1727"
       effect="bspline" />
    <inkscape:path-effect
       effect="bspline"
       id="path-effect1621"
       is_visible="true"
       lpeversion="1"
       weight="33.333333"
       steps="2"
       helper_size="0"
       apply_no_weight="true"
       apply_with_weight="true"
       only_selected="false" />
    <inkscape:path-effect
       effect="bspline"
       id="path-effect1601"
       is_visible="true"
       lpeversion="1"
       weight="33.333333"
       steps="2"
       helper_size="0"
       apply_no_weight="true"
       apply_with_weight="true"
       only_selected="false" />
    <inkscape:path-effect
       effect="bspline"
       id="path-effect1543"
       is_visible="true"
       lpeversion="1"
       weight="33.333333"
       steps="2"
       helper_size="0"
       apply_no_weight="true"
       apply_with_weight="true"
       only_selected="false" />
    <inkscape:path-effect
       only_selected="false"
       apply_with_weight="true"
       apply_no_weight="true"
       helper_size="0"
       steps="2"
       weight="33.333333"
       lpeversion="1"
       is_visible="true"
       id="path-effect1518"
       effect="bspline" />
  </defs>
  <sodipodi:namedview
     inkscape:current-layer="layer4"
     inkscape:window-maximized="1"
     inkscape:window-y="0"
     inkscape:window-x="0"
     inkscape:cy="8.7701306"
     inkscape:cx="-12.415023"
     inkscape:zoom="12.765635"
     showgrid="false"
     id="namedview945"
     inkscape:window-height="731"
     inkscape:window-width="1366"
     inkscape:pageshadow="2"
     inkscape:pageopacity="0"
     guidetolerance="10"
     gridtolerance="10"
     objecttolerance="10"
     borderopacity="1"
     bordercolor="#666666"
     pagecolor="#ffffff"
     inkscape:document-rotation="0" />
  <g
     transform="translate(-28.970435,-5.0937865)"
     style="display:inline"
     inkscape:label="Image 4"
     id="layer4"
     inkscape:groupmode="layer">
    <g
       id="g131"
       transform="matrix(0.0718575,0,0,0.07993504,28.840453,4.9630604)">
      <path
         style="display:inline;fill:#b1ca53;fill-opacity:1;stroke:none;stroke-width:1px;stroke-linecap:butt;stroke-linejoin:miter;stroke-opacity:1"
         d="m 5.0565226,69.679334 c -3.7950488,11.41911 -3.6198088,11.872413 -2.6770492,11.836207 0.9427595,-0.03621 2.6793375,-0.568638 8.6024116,-2.838423 5.923074,-2.269785 16.045584,-6.280808 21.115633,-8.311684 5.070048,-2.030877 5.088146,-2.082294 10.721099,-1.102418 5.632952,0.979876 16.878962,2.991345 22.706891,3.9035 5.827929,0.912156 6.238229,0.725378 6.58003,0.50489 0.3418,-0.220487 0.636727,-0.494568 1.21569,-1.638587 0.578963,-1.14402 1.45278,-3.168269 1.906361,-4.148829 0.453582,-0.98056 0.48608,-0.918115 0.544447,-0.80175 0.05837,0.116366 0.142605,0.286601 0.804952,1.453943 0.662346,1.167343 1.902655,3.331701 2.628803,4.508914 0.726148,1.177214 0.937736,1.367479 1.509299,1.479634 0.571563,0.112154 1.503073,0.147101 7.237378,-0.901828 5.734305,-1.048929 16.271232,-3.181455 21.490082,-4.162167 5.21885,-0.980712 5.12036,-0.810055 5.11253,-0.770985 -0.008,0.03907 0.0748,-0.05315 0.79609,0.182265 0.72131,0.235412 2.07994,0.798015 7.7409,3.08721 5.66096,2.289196 15.58271,6.288252 20.71693,8.314009 5.13423,2.025758 5.46588,2.070949 5.78232,1.767562 0.31643,-0.303386 0.62176,-0.955224 0.71424,-1.801803 0.0925,-0.846579 -0.0282,-1.88851 -3.41232,-11.834181 -3.38411,-9.94567 -10.03165,-28.794408 -13.80638,-39.374998 -3.77474,-10.58059 -4.67654,-12.892565 -5.26298,-14.165801 -0.58645,-1.273236 -0.86803,-1.515963 -3.98401,-3.106318 -3.11598,-1.590354 -9.07122,-4.5321738 -12.23196,-6.1372025 -3.16073,-1.6050286 -3.52675,-1.8734244 -3.97684,-2.1547686 -0.45009,-0.2813443 -0.98543,-0.5760768 -1.5196,-0.870165 -0.32716,-0.096944 -0.65313,-0.1935322 -1.14722,0.048918 -0.4941,0.24245 -1.15396,0.8246873 -1.5328,1.1045031 -0.37884,0.2798158 -0.47778,0.2568618 -0.93701,-0.1237682 -0.45923,-0.38063 -1.27863,-1.1196011 -1.79391,-1.5245909 C 100.18526,1.6956319 99.973966,1.6251787 95.956729,2.7260984 91.939491,3.8270181 84.117171,6.0998131 79.972854,7.1693381 75.828536,8.2388631 75.361857,8.1045423 71.957251,7.0024573 68.552646,5.9003722 62.210366,3.8305589 58.993758,2.7714865 55.777149,1.7124142 55.686349,1.6638787 55.389297,1.6449653 c -0.297053,-0.018913 -0.800113,-0.00754 -1.304491,0.014721 -0.504379,0.022262 -1.009999,0.05545 -1.733743,0.5141819 C 51.627318,2.6326003 50.686381,3.5168133 49.813929,3.7089081 48.941477,3.9010029 48.136425,3.4002323 47.608302,3.1552577 47.080179,2.9102832 46.829239,2.921892 43.00459,4.6339684 39.179942,6.3460447 31.782391,9.7586113 28.08324,11.518803 24.384089,13.278996 24.383932,13.385537 20.500677,24.630957 16.617423,35.876378 8.8515714,58.260225 5.0565226,69.679334 Z"
         id="path1516"
         inkscape:path-effect="#path-effect1518"
         inkscape:original-d="m 1.0857675,80.643935 c 0.17624,0.454303 0.35148,0.907606 0.52572,1.359909 1.71327,-0.516276 3.44769,-1.055745 5.17003,-1.585118 C 16.905437,76.40854 27.027947,72.397515 37.149667,68.38541 c 0.0191,-0.05043 0.0372,-0.101847 0.0543,-0.154271 11.24746,2.012549 22.49347,4.024017 33.7387,6.034525 0.41132,-0.185784 0.82162,-0.372562 1.23092,-0.560343 0.28533,-0.241943 0.56964,-0.527448 0.85296,-0.792671 0.87485,-2.02333 1.74867,-4.047578 2.6215,-6.072866 0.0335,0.06345 0.066,0.125894 0.0975,0.187342 0.0853,0.17126 0.1695,0.341514 0.25275,0.510771 1.24136,2.165444 2.48167,4.329801 3.721,6.493201 0.21259,0.191271 0.42418,0.381534 0.63477,0.5708 0.93255,0.03595 1.86406,0.07089 2.79459,0.104843 10.53835,-2.131612 21.075273,-4.264139 31.611413,-6.397708 -0.0975,0.171669 -0.19597,0.342332 -0.29546,0.511998 0.0837,-0.09125 0.16631,-0.183486 0.24797,-0.276729 1.35969,0.563625 2.71832,1.126229 4.07598,1.687843 9.96767,4.008342 19.88601,8.015847 29.82752,12.022271 0.32698,0.04583 0.65869,0.09061 0.98653,0.134423 0.30634,-0.650865 0.61167,-1.302703 0.91601,-1.955554 -0.1197,-1.040972 -0.2404,-2.082903 -0.36211,-3.125854 -6.6468,-18.848492 -13.29434,-37.697229 -19.94301,-56.547343 -0.90085,-2.311068 -1.80266,-4.623042 -2.70548,-6.936063 -0.26691,-0.23751 -0.55224,-0.475892 -0.82985,-0.715338 -5.95448,-2.940938 -11.90972,-5.882758 -17.86608,-8.825637 -0.36504,-0.2674131 -0.73106,-0.5358078 -1.09811,-0.8052255 -0.53319,-0.2930982 -1.60251,-0.8822646 -1.60251,-0.8822646 0,0 -0.65332,-0.1928854 -0.98149,-0.290831 -0.65889,0.5832587 -1.31876,1.1654945 -1.97964,1.7467417 -0.0979,-0.02195 -0.19684,-0.044901 -0.29677,-0.068851 -0.81841,-0.7379847 -1.63781,-1.4769542 -2.45822,-2.2169353 -0.21029,-0.069455 -0.421583,-0.1399074 -0.633883,-0.2113612 -7.82163,2.273886 -15.64395,4.546681 -23.46743,6.8185215 C 75.828347,8.23952 75.361667,8.1052009 74.893987,7.969879 68.552447,5.900982 62.210167,3.8311677 55.866757,1.7603121 c -0.0898,-0.047538 -0.1806,-0.096074 -0.27241,-0.1456113 -0.50208,0.012373 -1.00514,0.023746 -1.50921,0.034119 -0.50464,0.034189 -1.01026,0.067377 -1.51688,0.099566 -0.93997,0.8852456 -1.88091,1.7694559 -2.82286,2.6526838 -0.80409,-0.4997939 -1.60914,-1.0005678 -2.41522,-1.5023517 -0.24995,0.012609 -0.50089,0.024218 -0.75283,0.034827 -7.39685,3.4137038 -14.7944,6.826271 -22.1931,10.2379071 8.4e-4,0.107545 6.9e-4,0.214086 -4.7e-4,0.319629 C 16.618677,35.876813 8.8527975,58.26065 1.0857675,80.643935 Z"
         sodipodi:nodetypes="ccccccccccccccccccccccccccccccccccccccccccccc" />
      <path
         sodipodi:nodetypes="cccccccccccccccccc"
         inkscape:original-d="m 114.76007,68.309033 c -0.0975,0.171669 -0.19597,0.342332 -0.29546,0.511998 0.0837,-0.09125 0.16631,-0.183486 0.24797,-0.276729 1.35969,0.563625 2.71832,1.126229 4.07598,1.687843 9.96767,4.008342 19.88601,8.015847 29.82752,12.022271 0.32698,0.04583 0.65869,0.09061 0.98653,0.134423 0.30634,-0.650865 0.61167,-1.302703 0.91601,-1.955554 -0.1197,-1.040972 -0.2404,-2.082903 -0.36211,-3.125854 -6.6468,-18.848492 -13.29434,-37.697229 -19.94301,-56.547343 -0.90085,-2.311068 -1.80266,-4.623042 -2.70548,-6.936063 -0.26691,-0.23751 -0.55224,-0.475892 -0.82985,-0.715338 -5.95448,-2.940937 -11.90972,-5.8827583 -17.86608,-8.8256373 -0.36504,-0.267413 -0.73106,-0.535807 -1.09811,-0.805225 -0.53319,-0.2930978 -1.60251,-0.8822648 -1.60251,-0.8822648 0,0 -0.65332,-0.192885 -0.98149,-0.290831 -0.65889,0.583259 -1.31876,1.1654948 -1.97964,1.7467418 -0.0979,-0.02195 -0.19684,-0.0449 -0.29677,-0.06885 3.97009,21.4445083 7.93848,42.8842673 11.9065,64.3264123 z"
         inkscape:path-effect="#path-effect1543"
         id="path1516-3"
         d="m 112.72633,57.673529 c 1.93507,10.806495 1.83658,10.977152 1.82875,11.016222 -0.008,0.03907 0.0748,-0.05315 0.79609,0.182265 0.72131,0.235412 2.07994,0.798015 7.7409,3.08721 5.66096,2.289196 15.58271,6.288252 20.71693,8.314009 5.13423,2.025758 5.46588,2.070949 5.78232,1.767562 0.31643,-0.303386 0.62176,-0.955224 0.71424,-1.801803 0.0925,-0.846579 -0.0282,-1.88851 -3.41232,-11.834181 -3.38411,-9.94567 -10.03165,-28.794408 -13.80638,-39.374998 -3.77474,-10.58059 -4.67654,-12.892565 -5.26298,-14.165801 -0.58645,-1.273236 -0.86803,-1.515963 -3.98401,-3.106318 -3.11598,-1.590354 -9.07122,-4.532174 -12.23196,-6.1372026 -3.16073,-1.6050287 -3.52675,-1.8734241 -3.97684,-2.1547683 -0.45009,-0.2813442 -0.98543,-0.5760769 -1.5196,-0.8701652 -0.32716,-0.096944 -0.65313,-0.1935322 -1.14722,0.048918 -0.4941,0.2424501 -1.15396,0.8246874 -1.5328,1.1045033 -0.37884,0.279816 -0.47778,0.2568623 1.45682,10.9675779 1.9346,10.710716 5.90299,32.150475 7.83806,42.95697 z"
         style="display:inline;fill:#92a627;fill-opacity:1;stroke:none;stroke-width:1px;stroke-linecap:butt;stroke-linejoin:miter;stroke-opacity:1" />
      <path
         sodipodi:nodetypes="ccccccccccccccccc"
         inkscape:original-d="m 37.149667,68.38541 c 0.0191,-0.05043 0.0372,-0.101847 0.0543,-0.154271 11.24746,2.012549 22.49347,4.024017 33.7387,6.034525 0.41132,-0.185784 0.82162,-0.372562 1.23092,-0.560343 0.28533,-0.241943 0.56964,-0.527448 0.85296,-0.792671 0.87485,-2.02333 1.74867,-4.047578 2.6215,-6.072866 0.0335,0.06345 0.066,0.125894 0.0975,0.187342 0.0853,0.17126 0.1695,0.341514 0.25275,0.510771 0.09958,-19.720684 0.198159,-39.442074 0.29574,-59.1650511 -0.46569,-0.133325 -0.93237,-0.267644 -1.40005,-0.402966 -6.34154,-2.068897 -12.68382,-4.138711 -19.02723,-6.209567 -0.0898,-0.04754 -0.1806,-0.09607 -0.27241,-0.145611 -0.50208,0.01237 -1.00514,0.02375 -1.50921,0.03412 -0.50464,0.03419 -1.01026,0.06738 -1.51688,0.09957 -0.93997,0.885246 -1.871332,1.7604583 -2.82286,2.652684 C 49.632497,4.3312722 49.519911,4.2609143 49.40714,4.1908045 45.36389,25.372274 41.236939,46.985863 37.149667,68.38541 Z"
         inkscape:path-effect="#path-effect1621"
         id="path1516-7"
         d="m 39.201678,57.6601 c -2.034112,10.674457 -2.016014,10.62304 3.616939,11.602916 5.632952,0.979876 16.878962,2.991345 22.706891,3.9035 5.827929,0.912156 6.238229,0.725378 6.58003,0.50489 0.3418,-0.220487 0.636727,-0.494568 1.21569,-1.638587 0.578963,-1.14402 1.45278,-3.168269 1.906361,-4.148829 0.453582,-0.98056 0.48608,-0.918115 0.544447,-0.80175 0.05837,0.116366 0.142605,0.286601 0.233721,-9.489216 0.09112,-9.775816 0.189694,-29.497206 0.0062,-39.425683 C 75.828536,8.2388642 75.361857,8.1045433 71.957251,7.0024582 68.552646,5.9003731 62.210366,3.8305598 58.993757,2.7714872 55.777149,1.7124146 55.686351,1.6638805 55.389297,1.644967 c -0.297053,-0.018914 -0.800113,-0.00754 -1.304491,0.014722 -0.504379,0.022263 -1.009999,0.055452 -1.733743,0.5141848 -0.723745,0.4587327 -1.655106,1.3339463 -2.186751,1.7455358 -0.531645,0.4115895 -0.644398,0.341499 -2.722984,10.8970723 -2.078587,10.555573 -6.205538,32.169162 -8.23965,42.843618 z"
         style="display:inline;opacity:0.998;mix-blend-mode:normal;fill:#92a627;fill-opacity:1;stroke:none;stroke-width:1px;stroke-linecap:butt;stroke-linejoin:miter;stroke-opacity:1" />
      <path
         style="fill:#d3dba9;fill-opacity:1;stroke:none;stroke-width:1px;stroke-linecap:butt;stroke-linejoin:miter;stroke-opacity:1"
         d="m 25.329689,31.412175 c 0.134806,0.157262 0.395242,0.461081 1.392582,0.868169 0.997341,0.407089 2.72884,0.924589 4.081597,1.181558 1.352758,0.256968 2.328698,0.256968 3.077445,0.256968 0.748746,0 1.2703,0 1.754319,-0.02627 0.484018,-0.02627 0.931768,-0.07781 1.550029,0.07134 0.618261,0.149153 1.403698,0.492716 1.881614,0.75309 0.477917,0.260374 0.650379,0.432837 0.717794,0.500254 0.06742,0.06742 0.0298,0.0298 0.118164,0.05048 0.08837,0.02069 0.300659,0.104894 0.902827,0.276726 0.602169,0.171832 1.594467,0.432965 2.394951,0.561978 0.800484,0.129012 1.410968,0.129012 1.756437,0.08379 0.345469,-0.04523 0.435923,-0.135677 0.814837,-0.207377 0.378915,-0.0717 1.037141,-0.123924 1.468127,-0.202896 0.430985,-0.07897 0.639879,-0.183419 0.929464,-0.234643 0.289586,-0.05122 0.653863,-0.05122 1.539763,-0.02492 0.885901,0.0263 2.293068,0.07853 3.407388,0.364213 1.11432,0.285685 1.934463,0.797919 2.677527,1.050386 0.743065,0.252467 1.410739,0.252467 1.979133,0.305992 0.568394,0.05353 1.035856,0.157973 1.458626,0.08799 0.42277,-0.06999 0.809762,-0.310097 1.144193,-0.429303 0.334432,-0.119206 0.609046,-0.119206 1.159242,0.09085 0.550196,0.210062 1.373979,0.624154 2.252834,0.962026 0.878855,0.337872 1.8129,0.602191 2.796086,1.000987 0.983186,0.398795 2.015417,0.929273 2.793188,1.263508 0.777772,0.334234 1.301225,0.475192 1.851282,0.731281 0.550057,0.25609 1.126907,0.623088 1.53412,0.827275 0.407214,0.204188 0.644923,0.250722 1.116786,0.42671 0.471863,0.175988 1.177327,0.478509 1.976551,0.575911 0.799225,0.0974 1.695523,-0.0041 2.48497,0.02452 0.789448,0.02867 1.469125,0.183902 1.887231,0.316254 0.418106,0.132352 0.574777,0.236799 0.850871,0.337078 0.276094,0.100278 0.671366,0.201076 1.051369,0.331067 0.380002,0.129992 0.744452,0.286985 1.240149,0.41605 0.495698,0.129065 1.123362,0.233512 1.61337,0.388029 0.490008,0.154518 0.841854,0.354265 1.313881,0.588263 0.472026,0.233998 1.064035,0.503493 1.56748,0.688865 0.503444,0.185373 0.918612,0.28917 1.278207,0.443627 0.359594,0.154457 0.663813,0.354895 1.053241,0.532862 0.389428,0.177967 0.863628,0.337057 1.403976,0.584053 0.540348,0.246996 1.146943,0.579401 1.527624,0.742342 0.38068,0.162941 0.537351,0.162941 0.974694,0.344945 0.437342,0.182004 1.153357,0.540011 1.790968,0.821017 0.63761,0.281006 1.196769,0.486582 1.819182,0.747726 0.622412,0.261144 1.308076,0.576739 1.700359,0.731764 0.392284,0.155024 0.493237,0.155024 0.590843,0.207149 0.0976,0.05212 0.19184,0.146368 0.6182,0.341442 0.42637,0.195074 1.18277,0.496167 1.58096,0.722382 0.3982,0.226215 0.44626,0.370385 0.65462,0.622793 0.20836,0.252408 0.57102,0.615068 0.93576,0.845323 0.36474,0.230255 0.72967,0.334702 1.17459,0.491988 0.44493,0.157287 0.96967,0.366015 1.63047,0.52234 0.66079,0.156324 1.45857,0.263547 2.09309,0.376712 0.63453,0.113164 1.10517,0.230825 1.62866,0.314788 0.52349,0.08396 1.10077,0.136185 1.64732,0.42224 0.54655,0.286054 1.06312,0.796972 1.62048,1.074045 0.55736,0.277073 1.15477,0.329296 1.5053,0.412158 0.35053,0.08286 0.45498,0.18731 0.89901,0.314026 0.44403,0.126715 1.2261,0.283386 1.90811,0.468861 0.68202,0.185474 1.26346,0.397665 2.4452,0.501565 1.18175,0.103899 2.96584,0.103899 4.15203,0.185486 1.18619,0.08159 1.77262,0.241532 2.42578,0.319888 0.65317,0.07836 1.37492,0.07836 1.80873,0.02631 0.4338,-0.05205 0.58737,-0.154614 1.07712,-0.205127 0.48975,-0.05051 1.30797,-0.05051 2.03313,-0.203978 0.72515,-0.153464 1.36299,-0.458367 1.70428,-0.658795 0.34129,-0.200427 0.39227,-0.302399 0.47599,-0.355386 0.0837,-0.05299 0.18817,-0.05299 0.47902,-0.240456 0.29085,-0.187469 0.77665,-0.561287 1.01882,-0.83468 0.24218,-0.273392 0.24218,-0.457472 0.0331,-0.928783 -0.20911,-0.471312 -0.63398,-1.231734 -0.9141,-1.661385 -0.28011,-0.429651 -0.42034,-0.524423 -0.31646,-0.897381 0.10387,-0.372958 0.46522,-1.01969 0.41476,-1.614627 -0.0505,-0.594938 -0.52381,-1.145416 -0.89792,-1.469741 -0.37412,-0.324325 -0.65181,-0.415755 -0.84211,-0.508907 -0.1903,-0.09315 -0.29127,-0.19412 -0.70926,-0.254802 -0.41798,-0.06068 -1.15315,-0.07124 -1.59713,-0.218469 -0.44397,-0.147228 -0.59266,-0.442977 -0.99905,-1.025352 -0.40639,-0.582374 -1.073,-1.450505 -2.12932,-2.197766 -1.05632,-0.747261 -2.50588,-1.367698 -3.42998,-1.462354 -0.92411,-0.09466 -1.31012,0.340999 -1.63094,0.05631 -0.32082,-0.284692 -0.58001,-1.300868 -0.73222,-1.835953 -0.1522,-0.535086 -0.20442,-0.587301 -0.23554,-1.028087 -0.0311,-0.440787 -0.0311,-1.270115 -0.0784,-1.737016 -0.0472,-0.466901 -0.15166,-0.571324 -0.33803,-0.938034 -0.18638,-0.36671 -0.44973,-0.997758 -0.71018,-1.422928 -0.26044,-0.425169 -0.52382,-0.641318 -0.76287,-1.034392 -0.23905,-0.393074 -0.44727,-0.966188 -0.75172,-1.53024 -0.30444,-0.564053 -0.70897,-1.118288 -0.97893,-1.320205 -0.26996,-0.201918 -0.39609,-0.04156 -0.53573,0.115059 -0.13964,0.15662 -0.29385,0.310827 -0.47433,0.699341 -0.18048,0.388514 -0.38524,1.005327 -0.70716,1.310724 -0.32192,0.305396 -0.77298,0.305396 -1.28736,0.382809 -0.51438,0.07741 -1.08883,0.234081 -1.4789,0.31334 -0.39006,0.07926 -0.59895,0.07926 -0.74178,0.06695 -0.14282,-0.01231 -0.22163,-0.04137 -0.24752,-0.03859 -0.0259,0.0028 0.003,0.03182 -0.0763,-0.442215 -0.0795,-0.474033 -0.25959,-1.452633 -0.9135,-2.257722 -0.6539,-0.805089 -1.79138,-1.431772 -2.74741,-2.209572 -0.95604,-0.777801 -1.72769,-1.711009 -2.38393,-2.482635 -0.65625,-0.771625 -1.19748,-1.381369 -1.60712,-2.071628 -0.40963,-0.69026 -0.68255,-1.462506 -1.01563,-1.753635 -0.33307,-0.29113 -0.72584,-0.08715 -1.00348,0.227458 -0.27764,0.314609 -0.4343,0.732397 -0.56382,0.990764 -0.12952,0.258366 -0.234,0.362839 -0.41746,0.677537 -0.18345,0.314699 -0.44393,0.835646 -0.67417,1.322495 -0.23024,0.486849 -0.43019,0.938931 -0.57873,1.18744 -0.14854,0.24851 -0.25169,0.300088 -0.3784,0.472128 -0.126711,0.17204 -0.270957,0.458566 -0.597834,0.7232 -0.326876,0.264633 -0.842577,0.513361 -1.258306,0.615726 -0.415728,0.102365 -0.738518,0.05468 -0.938239,0.03001 -0.19972,-0.02467 -0.275144,-0.02467 -0.275145,-0.02467 -10e-7,0 0.07542,0 0.05979,0.01311 -0.01563,0.01311 -0.119104,0.04116 -0.262988,0.145151 -0.143884,0.103991 -0.321375,0.282062 -0.558054,0.223149 -0.236679,-0.05891 -0.542561,-0.364794 -0.725121,-0.619848 -0.18256,-0.255055 -0.234784,-0.461063 -0.377231,-0.684799 -0.142448,-0.223737 -0.382133,-0.463427 -0.531062,-0.659662 -0.148928,-0.196236 -0.201153,-0.351026 -0.32787,-0.434423 -0.126717,-0.0834 -0.333877,-0.0834 -0.651155,-0.204462 -0.317278,-0.121065 -0.746497,-0.370053 -1.011947,-0.497976 -0.265451,-0.127923 -0.365305,-0.127923 -0.526957,-0.211498 -0.161652,-0.08357 -0.386152,-0.25938 -0.578856,-0.722176 -0.192703,-0.462797 -0.344892,-1.215481 -0.5627,-1.692957 -0.217807,-0.477476 -0.510392,-0.675993 -0.709656,-0.826376 -0.199264,-0.150383 -0.303708,-0.254827 -0.687775,-0.38747 -0.384067,-0.132643 -1.049439,-0.286179 -1.460439,-0.436766 -0.411,-0.150587 -0.565943,-0.305528 -0.860314,-0.412349 -0.294372,-0.106822 -0.729175,-0.156787 -1.354304,0.271472 -0.625129,0.428258 -1.429016,1.335365 -1.925194,1.749612 -0.496178,0.414247 -0.697281,0.33129 -0.870058,0.08067 -0.172776,-0.250619 -0.308989,-0.675893 -0.453224,-1.112887 -0.144234,-0.436995 -0.296735,-0.885746 -0.375027,-1.21787 -0.07829,-0.332124 -0.07829,-0.54561 -0.247655,-0.876157 -0.169363,-0.330547 -0.516676,-0.779249 -0.872246,-1.259125 -0.355569,-0.479876 -0.718883,-0.991199 -1.239085,-1.124911 -0.520202,-0.133712 -1.194614,0.123614 -1.534519,0.336643 -0.339905,0.213028 -0.339905,0.369699 -0.44484,0.574203 -0.104935,0.204503 -0.31383,0.465621 -0.471013,0.702018 -0.157183,0.236397 -0.261629,0.44529 -0.4173,0.652184 -0.15567,0.206894 -0.364564,0.415788 -0.539694,0.664319 -0.175129,0.248531 -0.314479,0.532592 -0.688096,0.901066 -0.373616,0.368474 -0.98512,0.82667 -1.31666,1.081354 -0.33154,0.254685 -0.381518,0.304663 -0.428398,0.373439 -0.04688,0.06878 -0.08867,0.152355 -0.09881,0.04124 -0.01014,-0.111109 0.01,-0.42222 0.07139,-1.043296 0.06142,-0.621076 0.164515,-1.551588 -0.06695,-2.05975 -0.231464,-0.508162 -0.809614,-0.586705 -1.15649,-0.574509 -0.346876,0.01219 -0.451321,0.116641 -0.918024,0.350307 -0.466703,0.233665 -1.30038,0.598615 -1.82644,0.867801 -0.52606,0.269186 -0.740991,0.44151 -0.924395,0.553268 -0.183404,0.111757 -0.340075,0.163981 -0.777404,0.470233 -0.437329,0.306252 -1.150654,0.865582 -1.561908,1.145771 -0.411254,0.280189 -0.529102,0.280189 -0.610224,0.133191 -0.08112,-0.146997 -0.11681,-0.45201 -0.209433,-0.708874 -0.09262,-0.256864 -0.249294,-0.465758 -0.430484,-0.699151 -0.18119,-0.233392 -0.38728,-0.49106 -0.229979,-0.732585 0.157301,-0.241525 0.68166,-0.453862 0.967115,-0.991846 0.285455,-0.537985 0.337678,-1.413057 0.412762,-1.948777 0.07508,-0.53572 0.174431,-0.726487 0.03773,-0.86188 -0.136705,-0.135393 -0.522982,-0.213993 -0.977732,-0.254468 -0.454751,-0.04048 -0.976419,-0.04048 -1.288823,-0.08705 -0.312404,-0.04657 -0.415545,-0.14971 -1.107347,-0.20628 -0.691803,-0.05657 -1.972268,-0.05657 -2.694057,-0.0054 -0.721789,0.05114 -0.877197,0.154958 -1.001229,0.207632 -0.124032,0.05268 -0.224393,0.05268 -0.505962,0.494243 -0.281568,0.441569 -0.732367,1.320848 -1.029458,1.758557 -0.297091,0.43771 -0.452455,0.43771 -0.701629,0.21837 -0.249173,-0.219341 -0.590628,-0.669183 -0.782504,-1.107711 -0.191876,-0.438528 -0.226575,-0.865324 -0.222011,-1.061743 0.0046,-0.196419 0.03926,-0.161719 -0.108631,-0.14086 -0.147895,0.02086 -0.477824,0.03838 -0.804214,0.461922 -0.326391,0.423539 -0.637743,1.24715 -0.711603,1.854023 -0.07386,0.606874 0.08279,0.990381 -0.176499,1.561674 -0.259284,0.571293 -0.928921,1.341699 -1.355025,1.72653 -0.426104,0.38483 -0.619322,0.38483 -0.759377,0.404054 -0.140055,0.01922 -0.220948,0.05967 -0.301229,0.02171 -0.08028,-0.03796 -0.163391,-0.167968 -0.487543,-0.472651 -0.324151,-0.304684 -0.892701,-0.781458 -1.29341,-1.024371 -0.400709,-0.242913 -0.632782,-0.242913 -0.910544,-0.07245 -0.277761,0.170465 -0.590809,0.510957 -1.032833,0.915054 -0.442024,0.404096 -1.014507,0.87312 -1.561729,1.256291 -0.547222,0.38317 -1.071357,0.681454 -1.478979,0.975448 -0.407623,0.293993 -0.695477,0.581844 -0.911831,0.72577 -0.216354,0.143925 -0.371208,0.143925 -0.668269,-0.01632 -0.297061,-0.160246 -0.737544,-0.489112 -1.132534,-0.680889 -0.394991,-0.191778 -0.744433,-0.239621 -1.07328,-0.289457 -0.328846,-0.04984 -0.637305,-0.102059 -1.036722,0.223968 -0.399417,0.326027 -0.876933,1.030027 -1.46704,1.032608 -0.590108,0.0026 -1.304357,-0.703998 -1.690566,-1.132815 -0.386208,-0.428817 -0.438419,-0.581938 -1.193893,-0.688758 -0.755473,-0.10682 -2.220435,-0.15567 -3.061291,-0.07705 -0.840856,0.07862 -1.047283,0.285041 -1.540702,0.622378 -0.49342,0.337336 -1.276773,0.807348 -2.242904,1.064017 -0.966131,0.25667 -2.121723,0.298583 -2.91217,0.451947 -0.790447,0.153365 -1.208714,0.419481 -1.471349,0.631766 -0.262634,0.212285 -0.365508,0.36678 -0.585897,0.561161 -0.220389,0.194381 -0.561876,0.432386 -0.706258,0.676132 -0.144383,0.243746 -0.09219,0.48017 0.185756,0.692133 0.277946,0.211963 0.772151,0.406357 1.013221,0.501181 0.241069,0.09482 0.241058,0.09483 0.375864,0.252094 z"
         id="path1725"
         inkscape:path-effect="#path-effect1727"
         inkscape:original-d="m 25.194883,31.254913 c 0.270435,0.313818 0.530871,0.617637 0.781307,0.911456 1.741498,0.5275 3.472997,1.045001 5.194495,1.552501 0.985941,0.01 1.961881,0.01 2.927821,0 0.531553,0.01 1.053107,0.01 1.56466,0 0.457751,-0.04154 0.905501,-0.09308 1.343252,-0.154619 0.795438,0.353563 1.580875,0.697126 2.356313,1.030689 0.182461,0.182463 0.354923,0.354926 0.517384,0.517389 -0.02763,-0.02763 -0.06525,-0.06525 -0.112875,-0.112875 0.222292,0.09421 0.434584,0.178417 0.636876,0.252625 1.002299,0.271134 1.994597,0.532268 2.976895,0.783401 0.620484,0.01 1.230968,0.01 1.831452,0 0.100454,-0.08045 0.190908,-0.170902 0.271362,-0.271353 0.668226,-0.04222 1.326452,-0.09445 1.974677,-0.15667 0.218894,-0.09445 0.427789,-0.198894 0.626683,-0.313341 0.374277,0.01 0.738554,0.01 1.092831,0 1.417167,0.06222 2.824334,0.114447 4.221501,0.15667 0.830143,0.522233 1.650286,1.034467 2.460429,1.5367 0.677673,0.01 1.345347,0.01 2.00302,0 0.477462,0.114447 0.944924,0.218894 1.402386,0.313341 0.396991,-0.230112 0.783982,-0.470225 1.160973,-0.720337 0.284613,0.01 0.559227,0.01 0.82384,0 0.833783,0.424093 1.657566,0.838185 2.471349,1.242278 0.944044,0.274319 1.878089,0.538639 2.802133,0.792958 1.042231,0.540478 2.074462,1.070957 3.096693,1.591435 0.533453,0.150958 1.056906,0.291916 1.570359,0.422874 0.586849,0.376997 1.163699,0.743995 1.730548,1.100993 0.247709,0.05653 0.485418,0.103067 0.713127,0.139601 0.715464,0.312522 1.420928,0.615043 2.116392,0.907564 0.906299,-0.09155 1.802597,-0.193099 2.688895,-0.304649 0.689677,0.165232 1.369354,0.320463 2.039032,0.465695 0.166671,0.114447 0.323341,0.218894 0.470012,0.313341 0.405272,0.110798 0.800544,0.211595 1.185816,0.302392 0.374449,0.166993 0.738898,0.323986 1.093348,0.470978 0.637664,0.114447 1.265328,0.218894 1.882992,0.313341 0.361846,0.209746 0.713692,0.409493 1.055538,0.599239 0.602009,0.279494 1.194018,0.548989 1.776028,0.808483 0.425168,0.113797 0.840336,0.217594 1.245504,0.31139 0.314219,0.210438 0.618438,0.410876 0.912657,0.601314 0.4842,0.16909 0.9584,0.32818 1.4226,0.47727 0.616595,0.342405 1.22319,0.674811 1.819786,0.997216 0.16667,0.01 0.323341,0.01 0.470011,0 0.726015,0.368008 1.44203,0.726015 2.148044,1.074022 0.569159,0.215576 1.128318,0.421152 1.677478,0.616728 0.695663,0.325595 1.381327,0.64119 2.05699,0.946785 0.110954,0.01 0.211907,0.01 0.302861,0 0.104252,0.104247 0.198492,0.198494 0.282742,0.282741 0.76641,0.311095 1.52281,0.61219 2.26922,0.903285 0.058,0.154154 0.10611,0.298307 0.14416,0.43246 0.37267,0.372661 0.73533,0.735322 1.08799,1.087984 0.37493,0.114447 0.73986,0.218894 1.09479,0.313341 0.53474,0.218728 1.05948,0.427457 1.57422,0.626185 0.80778,0.117223 1.60556,0.224447 2.39334,0.32167 0.48064,0.127663 0.95128,0.245325 1.41193,0.352987 0.58728,0.06222 1.16456,0.114447 1.73185,0.156671 0.52657,0.52092 1.04314,1.03184 1.54972,1.53276 0.60741,0.06222 1.20482,0.114447 1.79223,0.15667 0.11444,0.114447 0.21889,0.218894 0.31334,0.313341 0.79207,0.166671 1.57414,0.323342 2.34621,0.470012 0.59145,0.222194 1.17289,0.434387 1.74434,0.63658 1.79409,0.01 3.57818,0.01 5.35228,0 0.59643,0.169944 1.18286,0.329888 1.75929,0.479832 0.73175,0.01 1.4535,0.01 2.16525,0 0.16357,-0.09256 0.31714,-0.195126 0.4607,-0.307689 0.82823,0.01 1.64645,0.01 2.45468,0 0.64783,-0.294901 1.28567,-0.599802 1.91351,-0.914703 0.061,-0.09198 0.11198,-0.193953 0.15296,-0.30593 0.11445,0.01 0.2189,0.01 0.31334,0 0.49581,-0.363821 0.98161,-0.737641 1.45741,-1.121461 0.01,-0.17408 0.01,-0.35816 0,-0.552239 -0.41487,-0.750423 -0.83974,-1.510845 -1.27461,-2.281268 -0.13023,-0.08477 -0.27045,-0.179546 -0.42067,-0.284319 0.37135,-0.636732 0.7327,-1.283464 1.08405,-1.940195 -0.46334,-0.540477 -0.93669,-1.090953 -1.42004,-1.65143 -0.26768,-0.08143 -0.54537,-0.172859 -0.83306,-0.274288 -0.0909,-0.09095 -0.19189,-0.191895 -0.30284,-0.302842 -0.72516,-5.6e-4 -1.46033,-0.01112 -2.20549,-0.03168 -0.13868,-0.285747 -0.28737,-0.581493 -0.44605,-0.887239 -0.65661,-0.858131 -1.32322,-1.726261 -1.99983,-2.604391 -1.43956,-0.610437 -2.88912,-1.230874 -4.34868,-1.86131 -0.37601,0.445652 -0.76203,0.881305 -1.15804,1.306957 -0.2492,-1.006177 -0.50839,-2.022354 -0.77758,-3.048532 -0.0422,-0.04222 -0.0944,-0.09445 -0.15667,-0.15667 0.01,-0.819328 0.01,-1.648656 0,-2.487983 -0.0945,-0.09445 -0.1989,-0.198894 -0.31334,-0.313342 -0.25335,-0.621047 -0.5167,-1.252095 -0.79005,-1.893143 -0.25338,-0.206149 -0.51676,-0.422298 -0.79014,-0.648446 -0.19822,-0.563114 -0.40644,-1.136228 -0.62466,-1.719342 -0.39453,-0.544233 -0.79906,-1.098466 -1.21358,-1.662699 -0.11613,0.170359 -0.24225,0.330717 -0.37837,0.481076 -0.1442,0.164203 -0.29841,0.318407 -0.46261,0.462611 -0.19476,0.62681 -0.39953,1.243621 -0.61429,1.850432 -0.44107,0.01 -0.89213,0.01 -1.3532,0 -0.56446,0.166671 -1.13891,0.323342 -1.72337,0.470012 -0.1989,0.01 -0.40779,0.01 -0.62669,0 -0.0688,-0.01906 -0.14761,-0.04813 -0.23642,-0.08719 0.0391,0.03906 0.0681,0.06813 0.0872,0.08719 -0.17012,-0.968598 -0.35025,-1.947197 -0.54037,-2.935796 -1.12748,-0.616682 -2.26496,-1.243365 -3.41244,-1.880047 -0.76166,-0.923212 -1.53331,-1.856424 -2.31497,-2.799637 -0.53123,-0.599745 -1.07246,-1.209491 -1.6237,-1.829237 -0.26291,-0.762245 -0.53583,-1.53449 -0.81875,-2.316735 -0.38277,0.213983 -0.77553,0.417965 -1.1783,0.611947 -0.14667,0.427789 -0.30334,0.845577 -0.47001,1.253365 -0.0944,0.114447 -0.1989,0.218894 -0.31334,0.313341 -0.25048,0.53095 -0.51095,1.051899 -0.78142,1.562848 -0.18995,0.462084 -0.38989,0.914168 -0.59984,1.356252 -0.0932,0.06159 -0.19635,0.113179 -0.30953,0.154768 -0.134247,0.296527 -0.278493,0.583053 -0.432739,0.85958 -0.505701,0.258728 -1.021402,0.507456 -1.547104,0.746184 -0.312788,-0.03768 -0.635577,-0.08537 -0.968366,-0.143049 -0.06542,0.01 -0.140844,0.01 -0.226266,0 0.08542,0.01 0.160844,0.01 0.226266,0 -0.09347,0.03805 -0.196944,0.06611 -0.310415,0.08416 -0.167492,0.188071 -0.344983,0.366142 -0.532474,0.534214 -0.295883,-0.295881 -0.601765,-0.601762 -0.917648,-0.917643 -0.04222,-0.196007 -0.09445,-0.402013 -0.15667,-0.618019 -0.229686,-0.22969 -0.469371,-0.46938 -0.719056,-0.71907 -0.04222,-0.144789 -0.09445,-0.299577 -0.156671,-0.464365 -0.19716,0.01 -0.40432,0.01 -0.62148,0 -0.419219,-0.238988 -0.848437,-0.487976 -1.287656,-0.746964 -0.08986,0.01 -0.189714,0.01 -0.299571,0 -0.2145,-0.165805 -0.439,-0.34161 -0.6735,-0.527415 -0.14219,-0.742683 -0.294379,-1.495367 -0.456568,-2.25805 -0.282584,-0.188517 -0.575168,-0.387035 -0.877753,-0.595552 -0.09445,-0.09445 -0.198894,-0.198894 -0.313341,-0.313341 -0.655372,-0.143536 -1.320744,-0.297072 -1.996116,-0.460607 -0.144943,-0.144942 -0.299886,-0.299883 -0.464829,-0.464825 -0.424804,-0.03996 -0.859607,-0.08993 -1.30441,-0.149895 -0.793887,0.917108 -1.597773,1.824216 -2.41166,2.721325 -0.191104,-0.07296 -0.392208,-0.155915 -0.603312,-0.248872 -0.126214,-0.415274 -0.262427,-0.840548 -0.40864,-1.275822 -0.142502,-0.438752 -0.295003,-0.887503 -0.457505,-1.346255 0.01,-0.203485 0.01,-0.416971 0,-0.640457 -0.337313,-0.438702 -0.684626,-0.887404 -1.04194,-1.346106 -0.353314,-0.501323 -0.716629,-1.012646 -1.089943,-1.533969 -0.664412,0.267326 -1.338824,0.524652 -2.023235,0.771978 0.01,0.166671 0.01,0.323342 0,0.470012 -0.198894,0.271118 -0.407789,0.532236 -0.626683,0.783353 -0.09445,0.218895 -0.198894,0.427789 -0.313341,0.626683 -0.198894,0.218894 -0.407788,0.427788 -0.626683,0.626683 -0.12935,0.294061 -0.268699,0.578122 -0.418049,0.852183 -0.601504,0.468196 -1.213008,0.926392 -1.834512,1.374588 -0.03997,0.05997 -0.08995,0.109946 -0.149919,0.149919 -0.03179,0.09358 -0.07358,0.177158 -0.125364,0.250736 0.03011,-0.30111 0.05023,-0.61222 0.06034,-0.93333 0.113096,-0.920512 0.216192,-1.851024 0.309287,-2.791537 -0.56815,-0.06854 -1.1463,-0.147085 -1.73445,-0.235627 -0.09445,0.114447 -0.198894,0.218894 -0.313341,0.313341 -0.823677,0.37495 -1.657354,0.739899 -2.501031,1.094849 -0.204932,0.182324 -0.419863,0.354648 -0.644794,0.516973 -0.146671,0.06222 -0.303341,0.114447 -0.470012,0.15667 -0.703324,0.56933 -1.416649,1.12866 -2.139973,1.677989 -0.107847,0.01 -0.225695,0.01 -0.353542,0 -0.02569,-0.295014 -0.06137,-0.600028 -0.107061,-0.915042 -0.14667,-0.198894 -0.303341,-0.407788 -0.470011,-0.626682 -0.19609,-0.247667 -0.402179,-0.505335 -0.618268,-0.773002 0.534358,-0.202337 1.058717,-0.414673 1.573075,-0.63701 0.06222,-0.865073 0.114447,-1.740145 0.15667,-2.625218 0.109348,-0.180767 0.208695,-0.371534 0.298042,-0.572301 -0.376277,-0.0686 -0.762554,-0.1472 -1.158831,-0.2358 -0.511668,0.01 -1.033336,0.01 -1.565004,0 -0.09314,-0.09314 -0.196281,-0.19628 -0.309421,-0.30942 -1.270465,0.01 -2.55093,0.01 -3.841395,0 -0.145408,0.113816 -0.300817,0.217632 -0.466225,0.311448 -0.09036,0.01 -0.190721,0.01 -0.301082,0 -0.440798,0.889278 -0.891596,1.768557 -1.352394,2.637835 -0.145363,0.01 -0.300727,0.01 -0.466091,0 -0.331455,-0.439841 -0.67291,-0.889683 -1.024364,-1.349524 -0.0247,-0.416797 -0.0594,-0.843593 -0.104097,-1.280389 0.0447,0.0447 0.0794,0.0794 0.104097,0.104097 -0.319929,0.02752 -0.649858,0.04505 -0.989787,0.05257 -0.301352,0.833611 -0.612704,1.657222 -0.934057,2.470833 0.166645,0.393507 0.323291,0.777014 0.469936,1.150521 -0.659637,0.780405 -1.329274,1.550811 -2.008911,2.311217 -0.183218,0.01 -0.376436,0.01 -0.579655,0 -0.07089,0.05045 -0.151783,0.0909 -0.242675,0.121347 -0.07311,-0.120008 -0.15622,-0.250015 -0.24933,-0.390023 -0.558549,-0.466774 -1.127099,-0.943548 -1.705648,-1.430322 -0.222074,0.01 -0.454147,0.01 -0.696221,0 -0.303048,0.350492 -0.616096,0.690984 -0.939144,1.021477 -0.562482,0.479023 -1.134965,0.948047 -1.717448,1.407071 -0.514135,0.308284 -1.03827,0.606567 -1.572405,0.894851 -0.277855,0.297851 -0.565709,0.585702 -0.863563,0.863553 -0.144854,0.01 -0.299708,0.01 -0.464561,0 -0.430484,-0.318866 -0.870967,-0.647732 -1.32145,-0.986598 -0.339443,-0.03784 -0.688885,-0.08569 -1.048328,-0.143531 -0.298458,-0.04222 -0.606916,-0.09445 -0.925374,-0.156671 -0.467515,0.713999 -0.94503,1.417999 -1.432545,2.111998 -0.704249,-0.696579 -1.418498,-1.403159 -2.142747,-2.119739 -0.04221,-0.143121 -0.09442,-0.296243 -0.156632,-0.459364 -1.454962,-0.03885 -2.919924,-0.0877 -4.394887,-0.146549 -0.196427,0.216426 -0.402854,0.422851 -0.619281,0.619277 -0.773353,0.480012 -1.556706,0.950023 -2.350059,1.410035 -1.145593,0.05191 -2.301185,0.09382 -3.466778,0.125737 -0.408266,0.276115 -0.826533,0.542231 -1.254799,0.798347 -0.09287,0.164493 -0.195745,0.318987 -0.308618,0.46348 -0.331486,0.248006 -0.672973,0.486011 -1.02446,0.714016 0.06219,0.246425 0.114384,0.482849 0.156575,0.709274 0.504205,0.204394 0.99841,0.398788 1.482615,0.583183 z" />
    </g>
  </g>
</svg>
